ProgettoDS
…
## # A tibble: 48 x 5
##    country drivers circuits_used held_races score
##    <chr>     <int>         <int>      <int> <dbl>
##  1 USA         157            10         70 121. 
##  2 UK          165             4         75 119. 
##  3 Italy        99             4        100 100. 
##  4 France       73             7         61  73.4
##  5 Germany      49             3         79  65.3
##  6 Belgium      23             3         65  46.3
##  7 Spain        15             6         57  42.7
##  8 Brazil       32             2         47  40.5
##  9 Monaco        4             1         66  35.1
## 10 Canada       14             3         50  34.8
## # ... with 38 more rows
…
## # A tibble: 848 x 11
##    driverId driverRef country races  wins second third podiums podium_rate
##       <dbl> <chr>     <chr>   <int> <int>  <int> <int>   <int>       <dbl>
##  1        8 raikkonen Finland   332    21     37    45     103      0.310 
##  2       22 barriche~ Brazil    326    11     29    28      68      0.209 
##  3        4 alonso    Spain     314    32     37    28      97      0.309 
##  4       18 button    UK        309    15     15    20      50      0.162 
##  5       30 michael_~ Germany   308    91     43    21     155      0.503 
##  6       13 massa     Brazil    271    11     13    17      41      0.151 
##  7        1 hamilton  UK        266    95     40    30     165      0.620 
##  8       20 vettel    Germany   258    53     35    33     121      0.469 
##  9      119 patrese   Italy     257     6     17    14      37      0.144 
## 10       15 trulli    Italy     256     1      4     6      11      0.0430
## # ... with 838 more rows, and 2 more variables: win_rate <dbl>, full_name <chr>
…
## # A tibble: 848 x 11
##    driverId driverRef country races  wins second third podiums podium_rate
##       <dbl> <chr>     <chr>   <int> <int>  <int> <int>   <int>       <dbl>
##  1        1 hamilton  UK        266    95     40    30     165       0.620
##  2       30 michael_~ Germany   308    91     43    21     155       0.503
##  3       20 vettel    Germany   258    53     35    33     121       0.469
##  4      117 prost     France    202    51     35    20     106       0.525
##  5      102 senna     Brazil    162    41     23    16      80       0.494
##  6        4 alonso    Spain     314    32     37    28      97       0.309
##  7       95 mansell   UK        192    31     17    11      59       0.307
##  8      328 stewart   UK        100    27     11     5      43       0.43 
##  9      182 lauda     Austria   174    25     20     9      54       0.310
## 10      373 clark     UK         73    25      1     6      32       0.438
## # ... with 838 more rows, and 2 more variables: win_rate <dbl>, full_name <chr>
…
## # A tibble: 848 x 11
##    driverId driverRef country races  wins second third podiums podium_rate
##       <dbl> <chr>     <chr>   <int> <int>  <int> <int>   <int>       <dbl>
##  1       30 michael_~ Germany   308    91     43    21     155       0.503
##  2        1 hamilton  UK        266    95     40    30     165       0.620
##  3        4 alonso    Spain     314    32     37    28      97       0.309
##  4        8 raikkonen Finland   332    21     37    45     103       0.310
##  5       20 vettel    Germany   258    53     35    33     121       0.469
##  6      117 prost     France    202    51     35    20     106       0.525
##  7       22 barriche~ Brazil    326    11     29    28      68       0.209
##  8      822 bottas    Finland   157     9     28    19      56       0.357
##  9       14 coulthard UK        247    13     26    23      62       0.251
## 10        3 rosberg   Germany   206    23     25     9      57       0.277
## # ... with 838 more rows, and 2 more variables: win_rate <dbl>, full_name <chr>
…
## # A tibble: 848 x 11
##    driverId driverRef country races  wins second third podiums podium_rate
##       <dbl> <chr>     <chr>   <int> <int>  <int> <int>   <int>       <dbl>
##  1        8 raikkonen Finland   332    21     37    45     103       0.310
##  2       20 vettel    Germany   258    53     35    33     121       0.469
##  3        1 hamilton  UK        266    95     40    30     165       0.620
##  4        4 alonso    Spain     314    32     37    28      97       0.309
##  5       22 barriche~ Brazil    326    11     29    28      68       0.209
##  6       14 coulthard UK        247    13     26    23      62       0.251
##  7       30 michael_~ Germany   308    91     43    21     155       0.503
##  8       77 berger    Austria   210    10     17    21      48       0.229
##  9      117 prost     France    202    51     35    20     106       0.525
## 10       18 button    UK        309    15     15    20      50       0.162
## # ... with 838 more rows, and 2 more variables: win_rate <dbl>, full_name <chr>
…
## # A tibble: 848 x 11
##    driverId driverRef country races  wins second third podiums podium_rate
##       <dbl> <chr>     <chr>   <int> <int>  <int> <int>   <int>       <dbl>
##  1        1 hamilton  UK        266    95     40    30     165       0.620
##  2       30 michael_~ Germany   308    91     43    21     155       0.503
##  3       20 vettel    Germany   258    53     35    33     121       0.469
##  4      117 prost     France    202    51     35    20     106       0.525
##  5        8 raikkonen Finland   332    21     37    45     103       0.310
##  6        4 alonso    Spain     314    32     37    28      97       0.309
##  7      102 senna     Brazil    162    41     23    16      80       0.494
##  8       22 barriche~ Brazil    326    11     29    28      68       0.209
##  9       14 coulthard UK        247    13     26    23      62       0.251
## 10      137 piquet    Brazil    207    23     20    17      60       0.290
## # ... with 838 more rows, and 2 more variables: win_rate <dbl>, full_name <chr>
…
## # A tibble: 79 x 11
##    driverId driverRef country races  wins second third podiums podium_rate
##       <dbl> <chr>     <chr>   <int> <int>  <int> <int>   <int>       <dbl>
##  1        1 hamilton  UK        266    95     40    30     165       0.620
##  2      117 prost     France    202    51     35    20     106       0.525
##  3       30 michael_~ Germany   308    91     43    21     155       0.503
##  4      102 senna     Brazil    162    41     23    16      80       0.494
##  5       20 vettel    Germany   258    53     35    33     121       0.469
##  6      328 stewart   UK        100    27     11     5      43       0.43 
##  7      822 bottas    Finland   157     9     28    19      56       0.357
##  8      830 max_vers~ Holland   119    10     17    15      42       0.353
##  9       71 damon_hi~ UK        122    22     15     5      42       0.344
## 10      182 lauda     Austria   174    25     20     9      54       0.310
## # ... with 69 more rows, and 2 more variables: win_rate <dbl>, full_name <chr>
…
## # A tibble: 79 x 11
##    driverId driverRef country races  wins second third podiums podium_rate
##       <dbl> <chr>     <chr>   <int> <int>  <int> <int>   <int>       <dbl>
##  1        1 hamilton  UK        266    95     40    30     165       0.620
##  2       30 michael_~ Germany   308    91     43    21     155       0.503
##  3      328 stewart   UK        100    27     11     5      43       0.43 
##  4      102 senna     Brazil    162    41     23    16      80       0.494
##  5      117 prost     France    202    51     35    20     106       0.525
##  6       20 vettel    Germany   258    53     35    33     121       0.469
##  7       71 damon_hi~ UK        122    22     15     5      42       0.344
##  8       95 mansell   UK        192    31     17    11      59       0.307
##  9      182 lauda     Austria   174    25     20     9      54       0.310
## 10       57 hakkinen  Finland   165    20     14    17      51       0.309
## # ... with 69 more rows, and 2 more variables: win_rate <dbl>, full_name <chr>
…
## # A tibble: 848 x 13
##    driverId driverRef country races  wins second third podiums podium_rate
##       <dbl> <chr>     <chr>   <int> <int>  <int> <int>   <int>       <dbl>
##  1        1 hamilton  UK        266    95     40    30     165       0.620
##  2       20 vettel    Germany   258    53     35    33     121       0.469
##  3        4 alonso    Spain     314    32     37    28      97       0.309
##  4        8 raikkonen Finland   332    21     37    45     103       0.310
##  5        3 rosberg   Germany   206    23     25     9      57       0.277
##  6       30 michael_~ Germany   308    91     43    21     155       0.503
##  7      822 bottas    Finland   157     9     28    19      56       0.357
##  8       18 button    UK        309    15     15    20      50       0.162
##  9       13 massa     Brazil    271    11     13    17      41       0.151
## 10      830 max_vers~ Holland   119    10     17    15      42       0.353
## # ... with 838 more rows, and 4 more variables: win_rate <dbl>,
## #   full_name <chr>, tot_poits <dbl>, tot_poits_new <dbl>
…
## # A tibble: 848 x 13
##    driverId driverRef country races  wins second third podiums podium_rate
##       <dbl> <chr>     <chr>   <int> <int>  <int> <int>   <int>       <dbl>
##  1        1 hamilton  UK        266    95     40    30     165       0.620
##  2       30 michael_~ Germany   308    91     43    21     155       0.503
##  3       20 vettel    Germany   258    53     35    33     121       0.469
##  4        8 raikkonen Finland   332    21     37    45     103       0.310
##  5        4 alonso    Spain     314    32     37    28      97       0.309
##  6      117 prost     France    202    51     35    20     106       0.525
##  7       22 barriche~ Brazil    326    11     29    28      68       0.209
##  8      102 senna     Brazil    162    41     23    16      80       0.494
##  9       18 button    UK        309    15     15    20      50       0.162
## 10        3 rosberg   Germany   206    23     25     9      57       0.277
## # ... with 838 more rows, and 4 more variables: win_rate <dbl>,
## #   full_name <chr>, tot_poits <dbl>, tot_poits_new <dbl>
…
constr_stats = constr_stats %>% arrange(desc(held_seasons))
constr_stats

## # A tibble: 211 x 7
##    constructorId constructorRef name  country held_seasons win_seasons
##            <dbl> <chr>          <chr> <chr>          <int>       <int>
##  1             6 ferrari        Ferr~ Italy             71          16
##  2             1 mclaren        McLa~ UK                51           8
##  3             3 williams       Will~ UK                45           9
##  4            25 tyrrell        Tyrr~ UK                29           1
##  5            32 team_lotus     Team~ UK                29           4
##  6             4 renault        Rena~ France            24           2
##  7            66 brm            BRM   UK                23           1
##  8            15 sauber         Saub~ Switze~           22           0
##  9            34 brabham        Brab~ UK                22           0
## 10            18 minardi        Mina~ Italy             21           0
## # ... with 201 more rows, and 1 more variable: seasons_win_ratio <dbl>
…
constr_stats = constr_stats %>% arrange(desc(seasons_win_ratio))
constr_stats

## # A tibble: 211 x 7
##    constructorId constructorRef name  country held_seasons win_seasons
##            <dbl> <chr>          <chr> <chr>          <int>       <int>
##  1            23 brawn          Brawn UK                 1           1
##  2           131 mercedes       Merc~ Germany           13           7
##  3           191 brabham-repco  Brab~ UK                 4           2
##  4           196 matra-ford     Matr~ France             2           1
##  5           172 lotus-climax   Lotu~ UK                 7           2
##  6             9 red_bull       Red ~ Austria           16           4
##  7             6 ferrari        Ferr~ Italy             71          16
##  8           170 cooper-climax  Coop~ UK                 9           2
##  9             3 williams       Will~ UK                45           9
## 10           180 lotus-ford     Lotu~ UK                 6           1
## # ... with 201 more rows, and 1 more variable: seasons_win_ratio <dbl>
…
